Proyecto 3/src/build/module_BCDBin_tb.vcd
$date
	Wed Nov 13 23:12:49 2024
$end
$version
	Icarus Verilog
$end
$timescale
	1ps
$end
$scope module module_BCDBin_tb $end
$var wire 8 ! num2O [7:0] $end
$var wire 8 " num1O [7:0] $end
$var wire 1 # listo0 $end
$var wire 1 $ error $end
$var reg 1 % clk $end
$var reg 1 & listo1 $end
$var reg 1 ' listo2 $end
$var reg 8 ( num1 [7:0] $end
$var reg 8 ) num2 [7:0] $end
$var reg 1 * rst $end
$scope module uut $end
$var wire 1 % clk $end
$var wire 1 & listo1 $end
$var wire 1 ' listo2 $end
$var wire 8 + num1 [7:0] $end
$var wire 8 , num2 [7:0] $end
$var wire 1 * rst $end
$var wire 4 - unidades2 [3:0] $end
$var wire 4 . unidades1 [3:0] $end
$var wire 8 / shift_3_1_num2 [7:0] $end
$var wire 8 0 shift_3_1_num1 [7:0] $end
$var wire 8 1 shift_1_num2 [7:0] $end
$var wire 8 2 shift_1_num1 [7:0] $end
$var wire 8 3 decenas2_x10 [7:0] $end
$var wire 8 4 decenas2_ext [7:0] $end
$var wire 4 5 decenas2 [3:0] $end
$var wire 8 6 decenas1_x10 [7:0] $end
$var wire 8 7 decenas1_ext [7:0] $end
$var wire 4 8 decenas1 [3:0] $end
$var parameter 2 9 DONE $end
$var parameter 2 : NUM1 $end
$var parameter 2 ; NUM2 $end
$var parameter 2 < WAIT $end
$var reg 1 $ error $end
$var reg 1 # listo0 $end
$var reg 8 = num1O [7:0] $end
$var reg 8 > num2O [7:0] $end
$var reg 8 ? prev_num1 [7:0] $end
$var reg 2 @ state [1:0] $end
$upscope $end
$upscope $end
$enddefinitions $end
$comment Show the parameter values. $end
$dumpall
b0 <
b10 ;
b1 :
b11 9
$end
#0
$dumpvars
b0 @
b0 ?
b0 >
b0 =
b0 8
b0 7
b0 6
b0 5
b0 4
b0 3
b0 2
b0 1
b0 0
b0 /
b0 .
b0 -
b0 ,
b0 +
1*
b0 )
b0 (
0'
0&
0%
0$
0#
b0 "
b0 !
$end
#5000
1%
#10000
0%
0*
#15000
1%
#20000
b100 .
0%
b100 (
b100 +
#25000
b1 @
1%
#30000
0%
#35000
b100 "
b100 =
1%
#40000
0%
#45000
1%
#50000
0%
#55000
1%
#60000
0%
#65000
1%
#70000
0%
#75000
1%
#80000
0%
#85000
1%
#90000
0%
#95000
1%
#100000
0%
#105000
1%
#110000
0%
#115000
1%
#120000
b100000 0
b101000 6
b1000 2
b100 7
b100 8
b10 .
0%
b1000010 (
b1000010 +
#125000
b101010 "
b101010 =
1%
#130000
0%
1&
#135000
b1000010 ?
b10 @
1%
#140000
b1 -
0%
b1 )
b1 ,
#145000
b1 !
b1 >
1%
#150000
0%
#155000
1%
#160000
0%
#165000
1%
#170000
0%
#175000
1%
#180000
0%
#185000
1%
#190000
0%
#195000
1%
#200000
0%
#205000
1%
#210000
0%
#215000
1%
#220000
0%
#225000
1%
#230000
0%
#235000
1%
#240000
0%
#245000
1%
#250000
b1000 /
b1010 3
b10 1
b1 4
b1 5
b1001 -
0%
b11001 )
b11001 ,
#255000
b10011 !
b10011 >
1%
#260000
0%
1'
#265000
b11 @
1%
#270000
0%
#275000
b0 @
1#
1%
#280000
0%
#285000
0#
1%
